PR11
…
1.1 dplyr의 filter함수

데이터에서 원하는 조건에 따라 행을 추출하는 함수

filter( 데이터,조건1 | 조건2) : 조건1 또는 조건2 둘 중 한가지를 충족하는 데이터 추출

filter( 데이터, 조건1 & 조건2) : 조건1과 조건2 모두 충족하는 데이터 추출 ·조건을 작성할 때 쉼표’,’는 AND, ‘|’는 OR와 같음

filter(flights, month ==1 | day==1) 

## # A tibble: 37,198 x 19
##     year month   day dep_time sched_dep_time dep_delay arr_time
##    <int> <int> <int>    <int>          <int>     <dbl>    <int>
##  1  2013     1     1      517            515         2      830
##  2  2013     1     1      533            529         4      850
##  3  2013     1     1      542            540         2      923
##  4  2013     1     1      544            545        -1     1004
##  5  2013     1     1      554            600        -6      812
##  6  2013     1     1      554            558        -4      740
##  7  2013     1     1      555            600        -5      913
##  8  2013     1     1      557            600        -3      709
##  9  2013     1     1      557            600        -3      838
## 10  2013     1     1      558            600        -2      753
## # ... with 37,188 more rows, and 12 more variables: sched_arr_time <int>,
## #   arr_delay <dbl>, carrier <chr>, flight <int>, tailnum <chr>,
## #   origin <chr>, dest <chr>, air_time <dbl>, distance <dbl>, hour <dbl>,
## #   minute <dbl>, time_hour <dttm>

filter(flights, month ==1 , day==1) 

## # A tibble: 842 x 19
##     year month   day dep_time sched_dep_time dep_delay arr_time
##    <int> <int> <int>    <int>          <int>     <dbl>    <int>
##  1  2013     1     1      517            515         2      830
##  2  2013     1     1      533            529         4      850
##  3  2013     1     1      542            540         2      923
##  4  2013     1     1      544            545        -1     1004
##  5  2013     1     1      554            600        -6      812
##  6  2013     1     1      554            558        -4      740
##  7  2013     1     1      555            600        -5      913
##  8  2013     1     1      557            600        -3      709
##  9  2013     1     1      557            600        -3      838
## 10  2013     1     1      558            600        -2      753
## # ... with 832 more rows, and 12 more variables: sched_arr_time <int>,
## #   arr_delay <dbl>, carrier <chr>, flight <int>, tailnum <chr>,
## #   origin <chr>, dest <chr>, air_time <dbl>, distance <dbl>, hour <dbl>,
## #   minute <dbl>, time_hour <dttm>

filter(flights, month ==1 , day==1, year==2013) 

## # A tibble: 842 x 19
##     year month   day dep_time sched_dep_time dep_delay arr_time
##    <int> <int> <int>    <int>          <int>     <dbl>    <int>
##  1  2013     1     1      517            515         2      830
##  2  2013     1     1      533            529         4      850
##  3  2013     1     1      542            540         2      923
##  4  2013     1     1      544            545        -1     1004
##  5  2013     1     1      554            600        -6      812
##  6  2013     1     1      554            558        -4      740
##  7  2013     1     1      555            600        -5      913
##  8  2013     1     1      557            600        -3      709
##  9  2013     1     1      557            600        -3      838
## 10  2013     1     1      558            600        -2      753
## # ... with 832 more rows, and 12 more variables: sched_arr_time <int>,
## #   arr_delay <dbl>, carrier <chr>, flight <int>, tailnum <chr>,
## #   origin <chr>, dest <chr>, air_time <dbl>, distance <dbl>, hour <dbl>,
## #   minute <dbl>, time_hour <dttm>

1.2 dplyr의 arrange함수

. 데이터를 원하는 조건에 따라 정렬해주는 함수 * arrange(데이터, 정렬기준컬럼1, 정렬기준컬럼2, 정렬기준컬럼3) . 내림차순으로 정렬 시 desc함수사용: arrange(데이터, desc(정렬기준컬럼1))

arrange(flights, year, month ,day)

## # A tibble: 336,776 x 19
##     year month   day dep_time sched_dep_time dep_delay arr_time
##    <int> <int> <int>    <int>          <int>     <dbl>    <int>
##  1  2013     1     1      517            515         2      830
##  2  2013     1     1      533            529         4      850
##  3  2013     1     1      542            540         2      923
##  4  2013     1     1      544            545        -1     1004
##  5  2013     1     1      554            600        -6      812
##  6  2013     1     1      554            558        -4      740
##  7  2013     1     1      555            600        -5      913
##  8  2013     1     1      557            600        -3      709
##  9  2013     1     1      557            600        -3      838
## 10  2013     1     1      558            600        -2      753
## # ... with 336,766 more rows, and 12 more variables: sched_arr_time <int>,
## #   arr_delay <dbl>, carrier <chr>, flight <int>, tailnum <chr>,
## #   origin <chr>, dest <chr>, air_time <dbl>, distance <dbl>, hour <dbl>,
## #   minute <dbl>, time_hour <dttm>

arrange(flights, desc(month))

## # A tibble: 336,776 x 19
##     year month   day dep_time sched_dep_time dep_delay arr_time
##    <int> <int> <int>    <int>          <int>     <dbl>    <int>
##  1  2013    12     1       13           2359        14      446
##  2  2013    12     1       17           2359        18      443
##  3  2013    12     1      453            500        -7      636
##  4  2013    12     1      520            515         5      749
##  5  2013    12     1      536            540        -4      845
##  6  2013    12     1      540            550       -10     1005
##  7  2013    12     1      541            545        -4      734
##  8  2013    12     1      546            545         1      826
##  9  2013    12     1      549            600       -11      648
## 10  2013    12     1      550            600       -10      825
## # ... with 336,766 more rows, and 12 more variables: sched_arr_time <int>,
## #   arr_delay <dbl>, carrier <chr>, flight <int>, tailnum <chr>,
## #   origin <chr>, dest <chr>, air_time <dbl>, distance <dbl>, hour <dbl>,
## #   minute <dbl>, time_hour <dttm>

1.3 dplyr의 select함수

select함수는 원하는 열(column)을 추출

select(데이터, 컬럼1, 컬럼2, 컬럼3)

select(데이터, 컬럼1:컬럼3) -컬럼명을 변경할 수 있음

select(flights, year, month, day)

## # A tibble: 336,776 x 3
##     year month   day
##    <int> <int> <int>
##  1  2013     1     1
##  2  2013     1     1
##  3  2013     1     1
##  4  2013     1     1
##  5  2013     1     1
##  6  2013     1     1
##  7  2013     1     1
##  8  2013     1     1
##  9  2013     1     1
## 10  2013     1     1
## # ... with 336,766 more rows

select(flights, year:day)

## # A tibble: 336,776 x 3
##     year month   day
##    <int> <int> <int>
##  1  2013     1     1
##  2  2013     1     1
##  3  2013     1     1
##  4  2013     1     1
##  5  2013     1     1
##  6  2013     1     1
##  7  2013     1     1
##  8  2013     1     1
##  9  2013     1     1
## 10  2013     1     1
## # ... with 336,766 more rows

select(flights, -(year:day))

## # A tibble: 336,776 x 16
##    dep_time sched_dep_time dep_delay arr_time sched_arr_time arr_delay
##       <int>          <int>     <dbl>    <int>          <int>     <dbl>
##  1      517            515         2      830            819        11
##  2      533            529         4      850            830        20
##  3      542            540         2      923            850        33
##  4      544            545        -1     1004           1022       -18
##  5      554            600        -6      812            837       -25
##  6      554            558        -4      740            728        12
##  7      555            600        -5      913            854        19
##  8      557            600        -3      709            723       -14
##  9      557            600        -3      838            846        -8
## 10      558            600        -2      753            745         8
## # ... with 336,766 more rows, and 10 more variables: carrier <chr>,
## #   flight <int>, tailnum <chr>, origin <chr>, dest <chr>, air_time <dbl>,
## #   distance <dbl>, hour <dbl>, minute <dbl>, time_hour <dttm>

1.4 dplyr의 distinct함수

중복항목을 제외한 데이터를 확인 할 수 있음(unique함수와 동일) -distinct(데이터, 컬럼명)

distinct(select(flights, tailnum))

## # A tibble: 4,044 x 1
##    tailnum
##    <chr>  
##  1 N14228 
##  2 N24211 
##  3 N619AA 
##  4 N804JB 
##  5 N668DN 
##  6 N39463 
##  7 N516JB 
##  8 N829AS 
##  9 N593JB 
## 10 N3ALAA 
## # ... with 4,034 more rows

distinct(select(flights, origin, dest))

## # A tibble: 224 x 2
##    origin dest 
##    <chr>  <chr>
##  1 EWR    IAH  
##  2 LGA    IAH  
##  3 JFK    MIA  
##  4 JFK    BQN  
##  5 LGA    ATL  
##  6 EWR    ORD  
##  7 EWR    FLL  
##  8 LGA    IAD  
##  9 JFK    MCO  
## 10 LGA    ORD  
## # ... with 214 more rows

1.5 dplyr의 mutate함수

-기존 데이티 프레임에 새로운 열을 추가해줌 * 데이터 프레임 내의 변수들을 활용해 새로운 변수를 만들 때 효과적임 ·새로 생성한 변수를 해당 함수내에서 바로 활용이 가능

mutate(flights, gain <- arr_delay - dep_delay)

## # A tibble: 336,776 x 20
##     year month   day dep_time sched_dep_time dep_delay arr_time
##    <int> <int> <int>    <int>          <int>     <dbl>    <int>
##  1  2013     1     1      517            515         2      830
##  2  2013     1     1      533            529         4      850
##  3  2013     1     1      542            540         2      923
##  4  2013     1     1      544            545        -1     1004
##  5  2013     1     1      554            600        -6      812
##  6  2013     1     1      554            558        -4      740
##  7  2013     1     1      555            600        -5      913
##  8  2013     1     1      557            600        -3      709
##  9  2013     1     1      557            600        -3      838
## 10  2013     1     1      558            600        -2      753
## # ... with 336,766 more rows, and 13 more variables: sched_arr_time <int>,
## #   arr_delay <dbl>, carrier <chr>, flight <int>, tailnum <chr>,
## #   origin <chr>, dest <chr>, air_time <dbl>, distance <dbl>, hour <dbl>,
## #   minute <dbl>, time_hour <dttm>, `gain <- arr_delay - dep_delay` <dbl>

mutate(flights, gain=arr_delay - dep_delay, gain_per_hour=gain/(air_time/60))

## # A tibble: 336,776 x 21
##     year month   day dep_time sched_dep_time dep_delay arr_time
##    <int> <int> <int>    <int>          <int>     <dbl>    <int>
##  1  2013     1     1      517            515         2      830
##  2  2013     1     1      533            529         4      850
##  3  2013     1     1      542            540         2      923
##  4  2013     1     1      544            545        -1     1004
##  5  2013     1     1      554            600        -6      812
##  6  2013     1     1      554            558        -4      740
##  7  2013     1     1      555            600        -5      913
##  8  2013     1     1      557            600        -3      709
##  9  2013     1     1      557            600        -3      838
## 10  2013     1     1      558            600        -2      753
## # ... with 336,766 more rows, and 14 more variables: sched_arr_time <int>,
## #   arr_delay <dbl>, carrier <chr>, flight <int>, tailnum <chr>,
## #   origin <chr>, dest <chr>, air_time <dbl>, distance <dbl>, hour <dbl>,
## #   minute <dbl>, time_hour <dttm>, gain <dbl>, gain_per_hour <dbl>
…
1.8 dplyr의 Chain 연산

-여러단계의 함수나 연산을 연결하여 한번에 수행할 때 사용 * 옆의 함수의 결과는 바로 뒤에 오는 함수의 입력값이 됨 * 데이터를 여러 객체에 할당하지 않아도 되기때문에 메모리 관리에 유리함

체인연산 사용하지 않을 때

a1= group_by(flights, year, month, day)
a2= select(a1, year:day, arr_delay)
a3= summarise(a2, arr=mean(arr_delay, na.rm=T))
a4= filter(a3, arr >30)
a4

## # A tibble: 42 x 4
## # Groups:   year, month [11]
##     year month   day   arr
##    <int> <int> <int> <dbl>
##  1  2013     1    16  34.2
##  2  2013     1    31  32.6
##  3  2013     2    11  36.3
##  4  2013     2    27  31.3
##  5  2013     3     8  85.9
##  6  2013     3    18  41.3
##  7  2013     4    10  38.4
##  8  2013     4    12  36.0
##  9  2013     4    18  36.0
## 10  2013     4    19  47.9
## # ... with 32 more rows

체인연산 사용했을 때

flights %>% group_by(year, month, day) %>% select(arr_delay) %>% summarise(arr = mean(arr_delay, na.rm=T)) %>% filter(arr>30)

## Adding missing grouping variables: `year`, `month`, `day`

## # A tibble: 42 x 4
## # Groups:   year, month [11]
##     year month   day   arr
##    <int> <int> <int> <dbl>
##  1  2013     1    16  34.2
##  2  2013     1    31  32.6
##  3  2013     2    11  36.3
##  4  2013     2    27  31.3
##  5  2013     3     8  85.9
##  6  2013     3    18  41.3
##  7  2013     4    10  38.4
##  8  2013     4    12  36.0
##  9  2013     4    18  36.0
## 10  2013     4    19  47.9
## # ... with 32 more rows
…
